<svg width="25" height="25" viewBox="0 0 25 25" fill="none" xmlns="http://www.w3.org/2000/svg">
<path d="M12.4022 4.09253C10.0059 4.09253 9.70519 4.1027 8.76404 4.14427C7.82472 4.18602 7.18356 4.33036 6.62254 4.54214C6.04222 4.76088 5.54996 5.05349 5.05953 5.52969C4.56873 6.00571 4.26726 6.48351 4.04117 7.0466C3.82242 7.59131 3.67353 8.21381 3.63125 9.12517C3.58915 10.0387 3.57812 10.3307 3.57812 12.6566C3.57812 14.9825 3.58879 15.2735 3.63143 16.187C3.67463 17.0987 3.82334 17.721 4.04135 18.2655C4.2669 18.8288 4.56836 19.3066 5.05897 19.7826C5.54922 20.259 6.04149 20.5523 6.62144 20.7711C7.18282 20.9829 7.82417 21.1272 8.7633 21.1689C9.70446 21.2105 10.005 21.2207 12.4011 21.2207C14.7975 21.2207 15.0973 21.2105 16.0385 21.1689C16.9778 21.1272 17.6197 20.9829 18.1811 20.7711C18.7612 20.5523 19.2528 20.259 19.743 19.7826C20.2338 19.3066 20.5353 18.8288 20.7614 18.2657C20.9783 17.721 21.1272 17.0985 21.1713 16.1871C21.2136 15.2736 21.2246 14.9825 21.2246 12.6566C21.2246 10.3307 21.2136 10.0389 21.1713 9.12535C21.1272 8.21363 20.9783 7.59131 20.7614 7.04678C20.5353 6.48351 20.2338 6.00571 19.743 5.52969C19.2522 5.05331 18.7614 4.76071 18.1806 4.54214C17.6181 4.33036 16.9765 4.18602 16.0372 4.14427C15.0961 4.1027 14.7964 4.09253 12.3994 4.09253H12.4022ZM11.6107 5.63585C11.8456 5.63549 12.1077 5.63585 12.4022 5.63585C14.758 5.63585 15.0372 5.64405 15.9675 5.68509C16.8278 5.72327 17.2947 5.8628 17.6057 5.98002C18.0175 6.13524 18.3111 6.3208 18.6197 6.62054C18.9285 6.92028 19.1197 7.20575 19.28 7.60541C19.4007 7.90693 19.5447 8.36012 19.5838 9.19511C19.6261 10.0979 19.6353 10.3691 19.6353 12.6546C19.6353 14.9402 19.6261 15.2114 19.5838 16.1142C19.5445 16.9492 19.4007 17.4024 19.28 17.7039C19.1201 18.1035 18.9285 18.3881 18.6197 18.6877C18.3109 18.9874 18.0177 19.173 17.6057 19.3282C17.2951 19.446 16.8278 19.5851 15.9675 19.6233C15.0374 19.6643 14.758 19.6733 12.4022 19.6733C10.0462 19.6733 9.76696 19.6643 8.83683 19.6233C7.97655 19.5848 7.50965 19.4452 7.19845 19.328C6.78669 19.1728 6.49258 18.9872 6.18376 18.6875C5.87495 18.3878 5.68378 18.103 5.52349 17.7032C5.40272 17.4016 5.25879 16.9485 5.21963 16.1135C5.17735 15.2107 5.1689 14.9395 5.1689 12.6525C5.1689 10.3655 5.17735 10.0958 5.21963 9.19297C5.25897 8.35798 5.40272 7.90479 5.52349 7.60291C5.68341 7.20325 5.87495 6.91778 6.18376 6.61804C6.49258 6.3183 6.78669 6.13274 7.19845 5.97716C7.50947 5.85941 7.97655 5.72024 8.83683 5.68188C9.65078 5.6462 9.96622 5.63549 11.6107 5.63371V5.63585ZM17.112 7.05784C16.5275 7.05784 16.0532 7.51763 16.0532 8.08517C16.0532 8.65254 16.5275 9.11286 17.112 9.11286C17.6966 9.11286 18.1708 8.65254 18.1708 8.08517C18.1708 7.5178 17.6966 7.05748 17.112 7.05748V7.05784ZM12.4022 8.2586C9.89986 8.2586 7.87104 10.2278 7.87104 12.6566C7.87104 15.0854 9.89986 17.0537 12.4022 17.0537C14.9045 17.0537 16.9326 15.0854 16.9326 12.6566C16.9326 10.2278 14.9043 8.2586 12.402 8.2586H12.4022ZM12.4022 9.80191C14.0264 9.80191 15.3433 11.0799 15.3433 12.6566C15.3433 14.2331 14.0264 15.5113 12.4022 15.5113C10.7778 15.5113 9.46108 14.2331 9.46108 12.6566C9.46108 11.0799 10.7778 9.80191 12.4022 9.80191Z" fill="url(#paint0_radial)"/>
<path d="M12.4022 4.09253C10.0059 4.09253 9.70519 4.1027 8.76404 4.14427C7.82472 4.18602 7.18356 4.33036 6.62254 4.54214C6.04222 4.76088 5.54996 5.05349 5.05953 5.52969C4.56873 6.00571 4.26726 6.48351 4.04117 7.0466C3.82242 7.59131 3.67353 8.21381 3.63125 9.12517C3.58915 10.0387 3.57812 10.3307 3.57812 12.6566C3.57812 14.9825 3.58879 15.2735 3.63143 16.187C3.67463 17.0987 3.82334 17.721 4.04135 18.2655C4.2669 18.8288 4.56836 19.3066 5.05897 19.7826C5.54922 20.259 6.04149 20.5523 6.62144 20.7711C7.18282 20.9829 7.82417 21.1272 8.7633 21.1689C9.70446 21.2105 10.005 21.2207 12.4011 21.2207C14.7975 21.2207 15.0973 21.2105 16.0385 21.1689C16.9778 21.1272 17.6197 20.9829 18.1811 20.7711C18.7612 20.5523 19.2528 20.259 19.743 19.7826C20.2338 19.3066 20.5353 18.8288 20.7614 18.2657C20.9783 17.721 21.1272 17.0985 21.1713 16.1871C21.2136 15.2736 21.2246 14.9825 21.2246 12.6566C21.2246 10.3307 21.2136 10.0389 21.1713 9.12535C21.1272 8.21363 20.9783 7.59131 20.7614 7.04678C20.5353 6.48351 20.2338 6.00571 19.743 5.52969C19.2522 5.05331 18.7614 4.76071 18.1806 4.54214C17.6181 4.33036 16.9765 4.18602 16.0372 4.14427C15.0961 4.1027 14.7964 4.09253 12.3994 4.09253H12.4022ZM11.6107 5.63585C11.8456 5.63549 12.1077 5.63585 12.4022 5.63585C14.758 5.63585 15.0372 5.64405 15.9675 5.68509C16.8278 5.72327 17.2947 5.8628 17.6057 5.98002C18.0175 6.13524 18.3111 6.3208 18.6197 6.62054C18.9285 6.92028 19.1197 7.20575 19.28 7.60541C19.4007 7.90693 19.5447 8.36012 19.5838 9.19511C19.6261 10.0979 19.6353 10.3691 19.6353 12.6546C19.6353 14.9402 19.6261 15.2114 19.5838 16.1142C19.5445 16.9492 19.4007 17.4024 19.28 17.7039C19.1201 18.1035 18.9285 18.3881 18.6197 18.6877C18.3109 18.9874 18.0177 19.173 17.6057 19.3282C17.2951 19.446 16.8278 19.5851 15.9675 19.6233C15.0374 19.6643 14.758 19.6733 12.4022 19.6733C10.0462 19.6733 9.76696 19.6643 8.83683 19.6233C7.97655 19.5848 7.50965 19.4452 7.19845 19.328C6.78669 19.1728 6.49258 18.9872 6.18376 18.6875C5.87495 18.3878 5.68378 18.103 5.52349 17.7032C5.40272 17.4016 5.25879 16.9485 5.21963 16.1135C5.17735 15.2107 5.1689 14.9395 5.1689 12.6525C5.1689 10.3655 5.17735 10.0958 5.21963 9.19297C5.25897 8.35798 5.40272 7.90479 5.52349 7.60291C5.68341 7.20325 5.87495 6.91778 6.18376 6.61804C6.49258 6.3183 6.78669 6.13274 7.19845 5.97716C7.50947 5.85941 7.97655 5.72024 8.83683 5.68188C9.65078 5.6462 9.96622 5.63549 11.6107 5.63371V5.63585ZM17.112 7.05784C16.5275 7.05784 16.0532 7.51763 16.0532 8.08517C16.0532 8.65254 16.5275 9.11286 17.112 9.11286C17.6966 9.11286 18.1708 8.65254 18.1708 8.08517C18.1708 7.5178 17.6966 7.05748 17.112 7.05748V7.05784ZM12.4022 8.2586C9.89986 8.2586 7.87104 10.2278 7.87104 12.6566C7.87104 15.0854 9.89986 17.0537 12.4022 17.0537C14.9045 17.0537 16.9326 15.0854 16.9326 12.6566C16.9326 10.2278 14.9043 8.2586 12.402 8.2586H12.4022ZM12.4022 9.80191C14.0264 9.80191 15.3433 11.0799 15.3433 12.6566C15.3433 14.2331 14.0264 15.5113 12.4022 15.5113C10.7778 15.5113 9.46108 14.2331 9.46108 12.6566C9.46108 11.0799 10.7778 9.80191 12.4022 9.80191Z" fill="url(#paint1_radial)"/>
<defs>
<radialGradient id="paint0_radial" cx="0" cy="0" r="1" gradientUnits="userSpaceOnUse" gradientTransform="translate(8.26549 22.5399) rotate(-90) scale(16.9753 16.2661)">
<stop stop-color="#FFDD55"/>
<stop offset="0.1" stop-color="#FFDD55"/>
<stop offset="0.5" stop-color="#FF543E"/>
<stop offset="1" stop-color="#C837AB"/>
</radialGradient>
<radialGradient id="paint1_radial" cx="0" cy="0" r="1" gradientUnits="userSpaceOnUse" gradientTransform="translate(0.622247 5.32641) rotate(78.3473) scale(7.59699 32.1866)">
<stop stop-color="#3771C8"/>
<stop offset="0.128" stop-color="#3771C8"/>
<stop offset="1" stop-color="#6600FF" stop-opacity="0"/>
</radialGradient>
</defs>
</svg>
